^C:\USERS\VADIM\GIT\GIT-LABA10.01\CONSOLEAPPLICATION25\X64\DEBUG\CONSOLEAPPLICATION25.OBJ|C:\USERS\VADIM\GIT\GIT-LABA10.01\CONSOLEAPPLICATION25\X64\DEBUG\PROCESS.OBJ
C:\USERS\VADIM\GIT\GIT-LABA10.01\X64\DEBUG\CONSOLEAPPLICATION25.EXE
C:\USERS\VADIM\GIT\GIT-LABA10.01\CONSOLEAPPLICATION25\X64\DEBUG\CONSOLEAPPLICATION25.ILK
C:\USERS\VADIM\GIT\GIT-LABA10.01\X64\DEBUG\CONSOLEAPPLICATION25.PDB
^D:\ТЕЛЕГРАМ\ЗАГРУЗКИ\GIT-LABA10.01\GIT-LABA10.01\CONSOLEAPPLICATION25\X64\DEBUG\CONSOLEAPPLICATION25.OBJ|D:\ТЕЛЕГРАМ\ЗАГРУЗКИ\GIT-LABA10.01\GIT-LABA10.01\CONSOLEAPPLICATION25\X64\DEBUG\PROCESS.OBJ
D:\Телеграм\Загрузки\GIT-LABA10.01\GIT-LABA10.01\X64\DEBUG\CONSOLEAPPLICATION25.EXE
D:\Телеграм\Загрузки\GIT-LABA10.01\GIT-LABA10.01\CONSOLEAPPLICATION25\X64\DEBUG\CONSOLEAPPLICATION25.ILK
D:\Телеграм\Загрузки\GIT-LABA10.01\GIT-LABA10.01\X64\DEBUG\CONSOLEAPPLICATION25.PDB
